{
    "key": "rochesterjs-hipchat-connect-add-on-tut",
    "name": "Rochester JS",
    "description": "My very first HipChat add-on",
    "vendor": {
        "name": "Charlie Awyeah",
        "url": "https://www.hipchat.com"
    },
    "links": {
        "self": "{{localBaseUrl}}/atlassian-connect.json",
        "homepage": "{{localBaseUrl}}/atlassian-connect.json"
    },
    "capabilities": {
        "hipchatApiConsumer": {
            "scopes": [
                "send_notification",
                "view_room"
            ]
        },
        "installable": {
            "callbackUrl": "{{localBaseUrl}}/installable"
        },
        "webhook": {
            "url": "{{localBaseUrl}}/webhook",
            "pattern": "^/hello",
            "event": "room_message",
            "name": "Hello!"
        }
    }
}
